…
```r
gapminder %>% 
  group_by(continent, year) %>% 
  summarise(min_lifeExp = min(lifeExp),
            mean_lifeExp = mean(lifeExp),
            max_lifeExp = max(lifeExp))
```

```
## `summarise()` has grouped output by 'continent'. You can override using the
## `.groups` argument.
```

```
## # A tibble: 60 × 5
## # Groups:   continent [5]
##    continent  year min_lifeExp mean_lifeExp max_lifeExp
##    <fct>     <int>       <dbl>        <dbl>       <dbl>
##  1 Africa     1952        30           39.1        52.7
##  2 Africa     1957        31.6         41.3        58.1
##  3 Africa     1962        32.8         43.3        60.2
##  4 Africa     1967        34.1         45.3        61.6
##  5 Africa     1972        35.4         47.5        64.3
##  6 Africa     1977        36.8         49.6        67.1
##  7 Africa     1982        38.4         51.6        69.9
##  8 Africa     1987        39.9         53.3        71.9
##  9 Africa     1992        23.6         53.6        73.6
## 10 Africa     1997        36.1         53.6        74.8
## # … with 50 more rows
```
…
**7. Which countries have had the largest population growth since 1952?**

```r
gapminder %>% 
  select(country, year, pop) %>% 
  filter(year==1952 | year==2007) %>% 
  pivot_wider(names_from = year,
              values_from = pop) %>% 
  mutate(delta= `2007`- `1952`) %>% 
  arrange(desc(delta))
```

```
## # A tibble: 142 × 4
##    country          `1952`     `2007`     delta
##    <fct>             <int>      <int>     <int>
##  1 China         556263527 1318683096 762419569
##  2 India         372000000 1110396331 738396331
##  3 United States 157553000  301139947 143586947
##  4 Indonesia      82052000  223547000 141495000
##  5 Brazil         56602560  190010647 133408087
##  6 Pakistan       41346560  169270617 127924057
##  7 Bangladesh     46886859  150448339 103561480
##  8 Nigeria        33119096  135031164 101912068
##  9 Mexico         30144317  108700891  78556574
## 10 Philippines    22438691   91077287  68638596
## # … with 132 more rows
```
…
